                                        	0000	T	QP02                                                                                                                                	BS AA X   F
SAPLCPDI                                	8010	X	                                                                                                                                    	
                                        	0000	 	BDC_CURSOR                                                                                                                          	RC271-PLNNR
                                        	0000	 	BDC_OKCODE                                                                                                                          	=XALU
                                        	0000	 	RC271-PLNNR                                                                                                                         	GENE_PC
                                        	0000	 	RC271-STTAG                                                                                                                         	26.06.2023
SAPLCPDI                                	1200	X	                                                                                                                                    	
                                        	0000	 	BDC_CURSOR                                                                                                                          	PLKOD-PLNAL(01)
                                        	0000	 	BDC_OKCODE                                                                                                                          	=MTUE
                                        	0000	 	RC27X-ENTRY_ACT                                                                                                                     	1
                                        	0000	 	RC27X-FLG_SEL(01)                                                                                                                   	X
                                        	0000	 	BDC_SUBSCR                                                                                                                          	SAPLCPDI                                5000HEAD
SAPLCZDI                                	4010	X	                                                                                                                                    	
                                        	0000	 	BDC_CURSOR                                                                                                                          	MAPL-WERKS
                                        	0000	 	BDC_OKCODE                                                                                                                          	=BACK
                                        	0000	 	MAPL-PLNAL                                                                                                                          	1
                                        	0000	 	MAPL-MATNR                                                                                                                          	1001484375
                                        	0000	 	MAPL-WERKS                                                                                                                          	2001
                                        	0000	T	QP02                                                                                                                                	BS AA X   F
SAPLCPDI                                	8010	X	                                                                                                                                    	
                                        	0000	 	BDC_CURSOR                                                                                                                          	RC271-PLNNR
                                        	0000	 	BDC_OKCODE                                                                                                                          	XALU
                                        	0000	 	RC271-PLNNR                                                                                                                         	GENE_PC
                                        	0000	 	RC271-STTAG                                                                                                                         	26.06.2023
SAPLCPDI                                	1200	X	                                                                                                                                    	
                                        	0000	 	BDC_CURSOR                                                                                                                          	PLKOD-PLNAL(01)
                                        	0000	 	BDC_OKCODE                                                                                                                          	=MTUE
                                        	0000	 	RC27X-ENTRY_ACT                                                                                                                     	1
                                        	0000	 	RC27X-FLG_SEL(01)                                                                                                                   	X
                                        	0000	 	BDC_SUBSCR                                                                                                                          	SAPLCPDI                                5000HEAD
SAPLCZDI                                	4010	X	                                                                                                                                    	
                                        	0000	 	BDC_CURSOR                                                                                                                          	MAPL-PLNAL(01)
                                        	0000	 	BDC_OKCODE                                                                                                                          	=P++
SAPLCZDI                                	4010	X	                                                                                                                                    	
                                        	0000	 	BDC_CURSOR                                                                                                                          	MAPL-PLNAL(01)
                                        	0000	 	BDC_OKCODE                                                                                                                          	=P+
SAPLCZDI                                	4010	X	                                                                                                                                    	
                                        	0000	 	BDC_CURSOR                                                                                                                          	MAPL-WERKS(02)
                                        	0000	 	BDC_OKCODE                                                                                                                          	=BACK
                                        	0000	 	MAPL-PLNAL(02)                                                                                                                      	1
                                        	0000	 	MAPL-MATNR(02)                                                                                                                      	1001484375
                                        	0000	 	MAPL-WERKS(02)                                                                                                                      	2001
SAPLCPDI                                	1200	X	                                                                                                                                    	
                                        	0000	 	BDC_CURSOR                                                                                                                          	PLKOD-PLNAL(01)
                                        	0000	 	BDC_OKCODE                                                                                                                          	=BACK
                                        	0000	 	RC27X-ENTRY_ACT                                                                                                                     	1
                                        	0000	 	BDC_SUBSCR                                                                                                                          	SAPLCPDI                                5000HEAD
SAPLSPO1                                	0100	X	                                                                                                                                    	
                                        	0000	 	BDC_OKCODE                                                                                                                          	=YES
                                        	0000	T	QP02                                                                                                                                	BS AA X   F
SAPLCPDI                                	8010	X	                                                                                                                                    	
                                        	0000	 	BDC_CURSOR                                                                                                                          	RC271-PLNNR
                                        	0000	 	BDC_OKCODE                                                                                                                          	=XALU
                                        	0000	 	RC271-PLNNR                                                                                                                         	GENE_PC
                                        	0000	 	RC271-STTAG                                                                                                                         	26.06.2023
SAPLCPDI                                	1200	X	                                                                                                                                    	
                                        	0000	 	BDC_CURSOR                                                                                                                          	PLKOD-PLNAL(01)
                                        	0000	 	BDC_OKCODE                                                                                                                          	=MTUE
                                        	0000	 	RC27X-ENTRY_ACT                                                                                                                     	1
                                        	0000	 	RC27X-FLG_SEL(01)                                                                                                                   	X
                                        	0000	 	BDC_SUBSCR                                                                                                                          	SAPLCPDI                                5000HEAD
SAPLCZDI                                	4010	X	                                                                                                                                    	
                                        	0000	 	BDC_CURSOR                                                                                                                          	MAPL-PLNAL(01)
                                        	0000	 	BDC_OKCODE                                                                                                                          	=P++
SAPLCZDI                                	4010	X	                                                                                                                                    	
                                        	0000	 	BDC_CURSOR                                                                                                                          	MAPL-PLNAL(01)
                                        	0000	 	BDC_OKCODE                                                                                                                          	=P+
SAPLCZDI                                	4010	X	                                                                                                                                    	
                                        	0000	 	BDC_CURSOR                                                                                                                          	MAPL-WERKS(02)
                                        	0000	 	BDC_OKCODE                                                                                                                          	=BACK
                                        	0000	 	MAPL-PLNAL(02)                                                                                                                      	1
                                        	0000	 	MAPL-MATNR(02)                                                                                                                      	1001484375
                                        	0000	 	MAPL-WERKS(02)                                                                                                                      	2001
SAPLCPDI                                	1200	X	                                                                                                                                    	
                                        	0000	 	BDC_CURSOR                                                                                                                          	PLKOD-PLNAL(01)
                                        	0000	 	BDC_OKCODE                                                                                                                          	=BU
                                        	0000	 	RC27X-ENTRY_ACT                                                                                                                     	1
                                        	0000	 	BDC_SUBSCR                                                                                                                          	SAPLCPDI                                5000HEAD
